{
  "name": "taxi_scenario_1",
  "scenarios": {
    "zh": {
      "taxi_scenario_1_客服1": "您好！您可以往右前方直走，當您到達出口後，就會看到計程車招呼站，隨時都有計程車在那裡等候。",
      "taxi_scenario_1_客服2": "一般來說，在招呼站等的話，通常不會等太久，通常在五分鐘內就能搭上車。如果您有急事，也可以考慮使用叫車應用程式，這樣會更方便快捷。",
      "taxi_scenario_1_客服1_2": "不客氣！如果還有其他問題，隨時都可以來詢問我們喔！"
    },
    "ja": {
      "taxi_scenario_1_お客様1": "すみません、タクシーはどこで呼べますか？",
      "taxi_scenario_1_お客様1_2": "分かりました、ありがとうございます！では、これから向かいます。",
      "taxi_scenario_1_お客様2": "タクシーは通常どのくらい待つ必要がありますか？",
      "taxi_scenario_1_お客様2_2": "はい、情報ありがとうございます！"
    }
  }
}